project_files/rom_hdmi/simulation/qsim/rom_hdmi.msim.vcd
$comment
	File created using the following command:
		vcd file rom_hdmi.msim.vcd -direction
$end
$date
	Wed May 22 15:57:55 2019
$end
$version
	ModelSim Version 10.5b
$end
$timescale
	1ps
$end

$scope module rom_hdmi_vlg_vec_tst $end
$var reg 7 ! address [6:0] $end
$var reg 1 " clock $end
$var wire 1 # q [7] $end
$var wire 1 $ q [6] $end
$var wire 1 % q [5] $end
$var wire 1 & q [4] $end
$var wire 1 ' q [3] $end
$var wire 1 ( q [2] $end
$var wire 1 ) q [1] $end
$var wire 1 * q [0] $end

$scope module i1 $end
$var wire 1 + gnd $end
$var wire 1 , vcc $end
$var wire 1 - unknown $end
$var tri1 1 . devclrn $end
$var tri1 1 / devpor $end
$var tri1 1 0 devoe $end
$var wire 1 1 q[0]~output_o $end
$var wire 1 2 q[1]~output_o $end
$var wire 1 3 q[2]~output_o $end
$var wire 1 4 q[3]~output_o $end
$var wire 1 5 q[4]~output_o $end
$var wire 1 6 q[5]~output_o $end
$var wire 1 7 q[6]~output_o $end
$var wire 1 8 q[7]~output_o $end
$var wire 1 9 clock~input_o $end
$var wire 1 : address[0]~input_o $end
$var wire 1 ; address[1]~input_o $end
$var wire 1 < address[2]~input_o $end
$var wire 1 = address[3]~input_o $end
$var wire 1 > address[4]~input_o $end
$var wire 1 ? address[5]~input_o $end
$var wire 1 @ address[6]~input_o $end
$var wire 1 A altsyncram_component|auto_generated|q_a [7] $end
$var wire 1 B altsyncram_component|auto_generated|q_a [6] $end
$var wire 1 C altsyncram_component|auto_generated|q_a [5] $end
$var wire 1 D altsyncram_component|auto_generated|q_a [4] $end
$var wire 1 E altsyncram_component|auto_generated|q_a [3] $end
$var wire 1 F altsyncram_component|auto_generated|q_a [2] $end
$var wire 1 G altsyncram_component|auto_generated|q_a [1] $end
$var wire 1 H altsyncram_component|auto_generated|q_a [0] $end
$var wire 1 I altsyncram_component|auto_generated|ram_block1a0_PORTADATAOUT_bus [0] $end
$var wire 1 J altsyncram_component|auto_generated|ram_block1a1_PORTADATAOUT_bus [0] $end
$var wire 1 K altsyncram_component|auto_generated|ram_block1a2_PORTADATAOUT_bus [0] $end
$var wire 1 L altsyncram_component|auto_generated|ram_block1a3_PORTADATAOUT_bus [0] $end
$var wire 1 M altsyncram_component|auto_generated|ram_block1a4_PORTADATAOUT_bus [0] $end
$var wire 1 N altsyncram_component|auto_generated|ram_block1a5_PORTADATAOUT_bus [0] $end
$var wire 1 O altsyncram_component|auto_generated|ram_block1a6_PORTADATAOUT_bus [0] $end
$var wire 1 P altsyncram_component|auto_generated|ram_block1a7_PORTADATAOUT_bus [0] $end
$upscope $end
$upscope $end
$enddefinitions $end
#0
$dumpvars
b0 !
0"
0*
0)
0(
0'
0&
0%
0$
0#
0+
1,
x-
1.
1/
10
01
02
03
04
05
06
07
08
09
0:
0;
0<
0=
0>
0?
0@
0H
0G
0F
0E
0D
0C
0B
0A
0I
0J
0K
0L
0M
0N
0O
0P
$end
#5000
1"
19
#10000
b1 !
0"
1:
09
#15000
1"
19
1P
1O
1N
1K
1A
1B
1C
1F
13
16
17
18
1#
1$
1%
1(
#20000
b11 !
b10 !
0"
0:
1;
09
#25000
1"
19
0P
0O
0N
0K
1I
0A
0B
0C
0F
1H
11
03
06
07
08
0#
0$
0%
0(
1*
#30000
b11 !
0"
1:
09
#35000
1"
19
0I
0H
01
0*
#40000
b111 !
b101 !
b100 !
0"
0:
0;
1<
09
#45000
1"
19
1P
1O
1N
1K
1A
1B
1C
1F
13
16
17
18
1#
1$
1%
1(
#50000
b101 !
0"
1:
09
#55000
1"
19
0P
0O
0N
0K
1J
0A
0B
0C
0F
1G
12
03
06
07
08
0#
0$
0%
0(
1)
#60000
b111 !
b110 !
0"
0:
1;
09
#65000
1"
19
1M
1L
0J
1D
1E
0G
02
14
15
1&
1'
0)
#70000
b111 !
0"
1:
09
#75000
1"
19
1P
1O
1N
0M
0L
1K
1A
1B
1C
0D
0E
1F
13
04
05
16
17
18
1#
1$
1%
0&
0'
1(
#80000
b1111 !
b1011 !
b1001 !
b1000 !
0"
0:
0;
0<
1=
09
#85000
1"
19
0P
0O
0N
0K
1J
1I
0A
0B
0C
0F
1G
1H
11
12
03
06
07
08
0#
0$
0%
0(
1)
1*
#90000
b1001 !
0"
1:
09
#95000
1"
19
0J
0I
0G
0H
01
02
0)
0*
#100000
b1011 !
b1010 !
0"
0:
1;
09
#105000
1"
19
1P
1O
1N
1K
1A
1B
1C
1F
13
16
17
18
1#
1$
1%
1(
#110000
b1011 !
0"
1:
09
#115000
1"
19
0P
0O
0N
1M
1I
0A
0B
0C
1D
1H
11
15
06
07
08
0#
0$
0%
1&
1*
#120000
b1111 !
b1101 !
b1100 !
0"
0:
0;
1<
09
#125000
1"
19
0M
0K
0I
0D
0F
0H
01
03
05
0&
0(
0*
#130000
b1101 !
0"
1:
09
#135000
1"
19
1P
1O
1N
1K
1A
1B
1C
1F
13
16
17
18
1#
1$
1%
1(
#140000
b1111 !
b1110 !
0"
0:
1;
09
#145000
1"
19
0P
0O
0N
1M
1J
0A
0B
0C
1D
1G
12
15
06
07
08
0#
0$
0%
1&
1)
#150000
b1111 !
0"
1:
09
#155000
1"
19
1O
1N
0M
0K
0J
1I
1B
1C
0D
0F
0G
1H
11
02
03
05
16
17
1$
1%
0&
0(
0)
1*
#160000
b11111 !
b10111 !
b10011 !
b10001 !
b10000 !
0"
0:
0;
0<
0=
1>
09
#165000
1"
19
1P
1K
0I
1A
1F
0H
01
13
18
1#
1(
0*
#170000
b10001 !
0"
1:
09
#175000
1"
19
0P
0O
0N
1M
1L
0K
0A
0B
0C
1D
1E
0F
03
14
15
06
07
08
0#
0$
0%
1&
1'
0(
#180000
b10011 !
b10010 !
0"
0:
1;
09
#185000
1"
19
1O
0M
0L
1K
1J
1B
0D
0E
1F
1G
12
13
04
05
17
1$
0&
0'
1(
1)
#190000
b10011 !
0"
1:
09
#195000
1"
19
1P
1N
0J
1A
1C
0G
02
16
18
1#
1%
0)
#200000
b10111 !
b10101 !
b10100 !
0"
0:
0;
1<
09
#205000
1"
19
0P
0N
0K
0A
0C
0F
03
06
08
0#
0%
0(
#210000
b10101 !
0"
1:
09
#215000
1"
19
1P
0O
1A
0B
07
18
1#
0$
#220000
b10111 !
b10110 !
0"
0:
1;
09
#225000
1"
19
1O
1N
1K
1B
1C
1F
13
16
17
1$
1%
1(
#230000
b10111 !
0"
1:
09
#235000
1"
19
0P
0N
0K
1I
0A
0C
0F
1H
11
03
06
08
0#
0%
0(
1*
#240000
b11111 !
b11011 !
b11001 !
b11000 !
0"
0:
0;
0<
1=
09
#245000
1"
19
0O
1M
0I
0B
1D
0H
01
15
07
0$
1&
0*
#250000
b11001 !
0"
1:
09
#255000
1"
19
1P
1O
1N
0M
1K
1A
1B
1C
0D
1F
13
05
16
17
18
1#
1$
1%
0&
1(
#260000
b11011 !
b11010 !
0"
0:
1;
09
#265000
1"
19
0P
0N
1L
0K
0A
0C
1E
0F
03
14
06
08
0#
0%
1'
0(
#270000
b11011 !
0"
1:
09
#275000
1"
19
#280000
b11111 !
b11101 !
b11100 !
0"
0:
0;
1<
09
#285000
1"
19
1P
1N
0L
1K
1A
1C
0E
1F
13
04
16
18
1#
1%
0'
1(
#290000
b11101 !
0"
1:
09
#295000
1"
19
0P
0N
1L
0K
0A
0C
1E
0F
03
14
06
08
0#
0%
1'
0(
#300000
b11111 !
b11110 !
0"
0:
1;
09
#305000
1"
19
1P
0O
1N
1A
0B
1C
16
07
18
1#
0$
1%
#310000
b11111 !
0"
1:
09
#315000
1"
19
1O
0L
1K
1B
0E
1F
13
04
17
1$
0'
1(
#320000
b111111 !
b101111 !
b100111 !
b100011 !
b100001 !
b100000 !
0"
0:
0;
0<
0=
0>
1?
09
#325000
1"
19
0P
0N
1L
0A
0C
1E
14
06
08
0#
0%
1'
#330000
b100001 !
0"
1:
09
#335000
1"
19
0O
0L
1J
0B
0E
1G
12
04
07
0$
0'
1)
#340000
b100011 !
b100010 !
0"
0:
1;
09
#345000
1"
19
1P
1O
1N
0J
1A
1B
1C
0G
02
16
17
18
1#
1$
1%
0)
#350000
b100011 !
0"
1:
09
#355000
1"
19
0P
0N
1M
1I
0A
0C
1D
1H
11
15
06
08
0#
0%
1&
1*
#360000
b100111 !
b100101 !
b100100 !
0"
0:
0;
1<
09
#365000
1"
19
0O
0M
0K
0I
0B
0D
0F
0H
01
03
05
07
0$
0&
0(
0*
#370000
b100101 !
0"
1:
09
#375000
1"
19
1P
1O
1N
1K
1A
1B
1C
1F
13
16
17
18
1#
1$
1%
1(
#380000
b100111 !
b100110 !
0"
0:
1;
09
#385000
1"
19
0P
0N
1M
1I
0A
0C
1D
1H
11
15
06
08
0#
0%
1&
1*
#390000
b100111 !
0"
1:
09
#395000
1"
19
0O
0M
1L
0K
0I
0B
0D
1E
0F
0H
01
03
14
05
07
0$
0&
1'
0(
0*
#400000
b101111 !
b101011 !
b101001 !
b101000 !
0"
0:
0;
0<
1=
09
#405000
1"
19
1P
1O
1N
0L
1K
1A
1B
1C
0E
1F
13
04
16
17
18
1#
1$
1%
0'
1(
#410000
b101001 !
0"
1:
09
#415000
1"
19
0O
0N
1M
1J
0B
0C
1D
1G
12
15
06
07
0$
0%
1&
1)
#420000
b101011 !
b101010 !
0"
0:
1;
09
#425000
1"
19
0P
1N
0M
0K
0J
0A
1C
0D
0F
0G
02
03
05
16
08
0#
1%
0&
0(
0)
#430000
b101011 !
0"
1:
09
#435000
1"
19
1P
1O
1K
1A
1B
1F
13
17
18
1#
1$
1(
#440000
b101111 !
b101101 !
b101100 !
0"
0:
0;
1<
09
#445000
1"
19
0O
0N
1M
1L
0K
0B
0C
1D
1E
0F
03
14
15
06
07
0$
0%
1&
1'
0(
#450000
b101101 !
0"
1:
09
#455000
1"
19
0P
0M
0L
1J
1I
0A
0D
0E
1G
1H
11
12
04
05
08
0#
0&
0'
1)
1*
#460000
b101111 !
b101110 !
0"
0:
1;
09
#465000
1"
19
1P
1O
1N
1K
0J
0I
1A
1B
1C
1F
0G
0H
01
02
13
16
17
18
1#
1$
1%
1(
0)
0*
#470000
b101111 !
0"
1:
09
#475000
1"
19
0O
0N
1M
1L
0K
0B
0C
1D
1E
0F
03
14
15
06
07
0$
0%
1&
1'
0(
#480000
b111111 !
b110111 !
b110011 !
b110001 !
b110000 !
0"
0:
0;
0<
0=
1>
09
#485000
1"
19
0P
0M
0L
1J
0A
0D
0E
1G
12
04
05
08
0#
0&
0'
1)
#490000
b110001 !
0"
1:
09
#495000
1"
19
1P
1O
1N
1K
0J
1A
1B
1C
1F
0G
02
13
16
17
18
1#
1$
1%
1(
0)
#500000
b110011 !
b110010 !
0"
0:
1;
09
#505000
1"
19
0O
0N
1M
1L
0B
0C
1D
1E
14
15
06
07
0$
0%
1&
1'
#510000
b110011 !
0"
1:
09
#515000
1"
19
0P
1N
0L
0K
0A
1C
0E
0F
03
04
16
08
0#
1%
0'
0(
#520000
b110111 !
b110101 !
b110100 !
0"
0:
0;
1<
09
#525000
1"
19
1P
1O
0M
1K
1A
1B
0D
1F
13
05
17
18
1#
1$
0&
1(
#530000
b110101 !
0"
1:
09
#535000
1"
19
0O
0N
1M
1L
1I
0B
0C
1D
1E
1H
11
14
15
06
07
0$
0%
1&
1'
1*
#540000
b110111 !
b110110 !
0"
0:
1;
09
#545000
1"
19
0P
1O
1N
0M
0L
0K
0A
1B
1C
0D
0E
0F
03
04
05
16
17
08
0#
1$
1%
0&
0'
0(
#550000
b110111 !
0"
1:
09
#555000
1"
19
1P
1K
0I
1A
1F
0H
01
13
18
1#
1(
0*
#560000
b111111 !
b111011 !
b111001 !
b111000 !
0"
0:
0;
0<
1=
09
#565000
1"
19
0O
0K
1J
0B
0F
1G
12
03
07
0$
0(
1)
#570000
b111001 !
0"
1:
09
#575000
1"
19
1K
0J
1F
0G
02
13
1(
0)
#580000
b111011 !
b111010 !
0"
0:
1;
09
#585000
1"
19
1O
1B
17
1$
#590000
b111011 !
0"
1:
09
#595000
1"
19
0P
0N
0K
1J
1I
0A
0C
0F
1G
1H
11
12
03
06
08
0#
0%
0(
1)
1*
#600000
b111111 !
b111101 !
b111100 !
0"
0:
0;
1<
09
#605000
1"
19
1P
0O
1N
1K
0J
0I
1A
0B
1C
1F
0G
0H
01
02
13
16
07
18
1#
0$
1%
1(
0)
0*
#610000
b111101 !
0"
1:
09
#615000
1"
19
1O
1B
17
1$
#620000
b111111 !
b111110 !
0"
0:
1;
09
#625000
1"
19
0O
1L
1J
1I
0B
1E
1G
1H
11
12
14
07
0$
1'
1)
1*
#630000
b111111 !
0"
1:
09
#635000
1"
19
0P
0N
1M
0L
0I
0A
0C
1D
0E
0H
01
04
15
06
08
0#
0%
1&
0'
0*
#640000
b1111111 !
b1011111 !
b1001111 !
b1000111 !
b1000011 !
b1000001 !
b1000000 !
0"
0:
0;
0<
0=
0>
0?
1@
09
#645000
1"
19
1P
1O
1N
0M
0J
1A
1B
1C
0D
0G
02
05
16
17
18
1#
1$
1%
0&
0)
#650000
b1000001 !
0"
1:
09
#655000
1"
19
0O
1M
1L
0K
1J
0B
1D
1E
0F
1G
12
03
14
15
07
0$
1&
1'
0(
1)
#660000
b1000011 !
b1000010 !
0"
0:
1;
09
#665000
1"
19
0P
1O
0M
0L
0J
0A
1B
0D
0E
0G
02
04
05
17
08
0#
1$
0&
0'
0)
#670000
b1000011 !
0"
1:
09
#675000
1"
19
1P
1K
1A
1F
13
18
1#
1(
#680000
b1000111 !
b1000101 !
b1000100 !
0"
0:
0;
1<
09
#685000
1"
19
0N
1M
1L
1J
0C
1D
1E
1G
12
14
15
06
0%
1&
1'
1)
#690000
b1000101 !
0"
1:
09
#695000
1"
19
0O
0J
0B
0G
02
07
0$
0)
#700000
b1000111 !
b1000110 !
0"
0:
1;
09
#705000
1"
19
1O
1N
0M
0L
1B
1C
0D
0E
04
05
16
17
1$
1%
0&
0'
#710000
b1000111 !
0"
1:
09
#715000
1"
19
#720000
b1001111 !
b1001011 !
b1001001 !
b1001000 !
0"
0:
0;
0<
1=
09
#725000
1"
19
0P
0K
0A
0F
03
08
0#
0(
#730000
b1001001 !
0"
1:
09
#735000
1"
19
1P
1K
1A
1F
13
18
1#
1(
#740000
b1001011 !
b1001010 !
0"
0:
1;
09
#745000
1"
19
1M
1L
0K
1J
1D
1E
0F
1G
12
03
14
15
1&
1'
0(
1)
#750000
b1001011 !
0"
1:
09
#755000
1"
19
0P
1K
0J
1I
0A
1F
0G
1H
11
02
13
08
0#
1(
0)
1*
#760000
b1001111 !
b1001101 !
b1001100 !
0"
0:
0;
1<
09
#765000
1"
19
0O
0N
0M
0L
0K
0I
0B
0C
0D
0E
0F
0H
01
03
04
05
06
07
0$
0%
0&
0'
0(
0*
#770000
b1001101 !
0"
1:
09
#775000
1"
19
#780000
b1001111 !
b1001110 !
0"
0:
1;
09
#785000
1"
19
#790000
b1001111 !
0"
1:
09
#795000
1"
19
