project_files/hdmi_init/simulation/qsim/hdmi_init.msim.vcd
$comment
	File created using the following command:
		vcd file hdmi_init.msim.vcd -direction
$end
$date
	Tue May 28 15:16:19 2019
$end
$version
	ModelSim Version 10.5b
$end
$timescale
	1ps
$end

$scope module hdmi_init_vlg_vec_tst $end
$var reg 1 ! clk_ref $end
$var reg 1 " treg_i2c_sda $end
$var reg 1 # select $end
$var wire 1 $ current_value [7] $end
$var wire 1 % current_value [6] $end
$var wire 1 & current_value [5] $end
$var wire 1 ' current_value [4] $end
$var wire 1 ( current_value [3] $end
$var wire 1 ) current_value [2] $end
$var wire 1 * current_value [1] $end
$var wire 1 + current_value [0] $end
$var wire 1 , i2c_scl $end
$var wire 1 - i2c_sda $end
$var wire 1 . initialized_out $end
$var wire 1 / ready_out $end
$var wire 1 0 state [4] $end
$var wire 1 1 state [3] $end
$var wire 1 2 state [2] $end
$var wire 1 3 state [1] $end
$var wire 1 4 state [0] $end

$scope module i1 $end
$var wire 1 5 gnd $end
$var wire 1 6 vcc $end
$var wire 1 7 unknown $end
$var tri1 1 8 devclrn $end
$var tri1 1 9 devpor $end
$var tri1 1 : devoe $end
$var wire 1 ; i2c_sda~input_o $end
$var wire 1 < clk_ref~input_o $end
$var wire 1 = i2c|clk_divider|Add0~5_sumout $end
$var wire 1 > reset_toggle~0_combout $end
$var wire 1 ? reset_toggle~q $end
$var wire 1 @ select~input_o $end
$var wire 1 A sr_latch_n|comb~0_combout $end
$var wire 1 B sr_latch_n|always0~0_combout $end
$var wire 1 C sr_latch_n|output_Q~combout $end
$var wire 1 D i2c|clk_divider|Add0~2 $end
$var wire 1 E i2c|clk_divider|Add0~33_sumout $end
$var wire 1 F i2c|clk_divider|Add0~34 $end
$var wire 1 G i2c|clk_divider|Add0~29_sumout $end
$var wire 1 H i2c|clk_divider|Equal0~0_combout $end
$var wire 1 I i2c|clk_divider|count[5]~0_combout $end
$var wire 1 J i2c|clk_divider|Add0~6 $end
$var wire 1 K i2c|clk_divider|Add0~9_sumout $end
$var wire 1 L i2c|clk_divider|Add0~10 $end
$var wire 1 M i2c|clk_divider|Add0~13_sumout $end
$var wire 1 N i2c|clk_divider|Add0~14 $end
$var wire 1 O i2c|clk_divider|Add0~25_sumout $end
$var wire 1 P i2c|clk_divider|Add0~26 $end
$var wire 1 Q i2c|clk_divider|Add0~21_sumout $end
$var wire 1 R i2c|clk_divider|Add0~22 $end
$var wire 1 S i2c|clk_divider|Add0~17_sumout $end
$var wire 1 T i2c|clk_divider|Add0~18 $end
$var wire 1 U i2c|clk_divider|Add0~1_sumout $end
$var wire 1 V i2c|clk_divider|i2c_clk~0_combout $end
$var wire 1 W i2c|clk_divider|i2c_clk~q $end
$var wire 1 X Selector2~0_combout $end
$var wire 1 Y Add0~2 $end
$var wire 1 Z Add0~5_sumout $end
$var wire 1 [ Selector27~0_combout $end
$var wire 1 \ Add0~6 $end
$var wire 1 ] Add0~9_sumout $end
$var wire 1 ^ Selector28~0_combout $end
$var wire 1 _ Add0~10 $end
$var wire 1 ` Add0~13_sumout $end
$var wire 1 a Selector29~0_combout $end
$var wire 1 b Add0~14 $end
$var wire 1 c Add0~17_sumout $end
$var wire 1 d Selector30~0_combout $end
$var wire 1 e Add0~18 $end
$var wire 1 f Add0~21_sumout $end
$var wire 1 g Selector31~0_combout $end
$var wire 1 h Add0~22 $end
$var wire 1 i Add0~25_sumout $end
$var wire 1 j Selector32~0_combout $end
$var wire 1 k Add0~26 $end
$var wire 1 l Add0~29_sumout $end
$var wire 1 m Selector33~0_combout $end
$var wire 1 n Selector5~0_combout $end
$var wire 1 o comb~0_combout $end
$var wire 1 p next_state.STATE_START_488~combout $end
$var wire 1 q current_state.STATE_START~0_combout $end
$var wire 1 r current_state.STATE_START~q $end
$var wire 1 s three_count[1]~0_combout $end
$var wire 1 t Selector1~0_combout $end
$var wire 1 u Selector9~0_combout $end
$var wire 1 v Selector5~1_combout $end
$var wire 1 w next_state.STATE_WRITE_463~combout $end
$var wire 1 x current_state.STATE_WRITE~q $end
$var wire 1 y i2c|master|Add0~2 $end
$var wire 1 z i2c|master|Add0~5_sumout $end
$var wire 1 { start~0_combout $end
$var wire 1 | start~combout $end
$var wire 1 } i2c|master|state~23_combout $end
$var wire 1 ~ i2c|master|state.STATE_START~q $end
$var wire 1 !! i2c|master|Selector2~0_combout $end
$var wire 1 "! i2c|master|state.STATE_ADDR~q $end
$var wire 1 #! i2c|master|state~26_combout $end
$var wire 1 $! i2c|master|state.STATE_WACK~q $end
$var wire 1 %! i2c|master|Selector5~0_combout $end
$var wire 1 &! i2c|master|state.STATE_REG_ADDR~q $end
$var wire 1 '! i2c|master|state~27_combout $end
$var wire 1 (! i2c|master|state.STATE_WACK2~q $end
$var wire 1 )! i2c|master|WideOr5~0_combout $end
$var wire 1 *! i2c|master|count[2]~0_combout $end
$var wire 1 +! i2c|master|Selector18~3_combout $end
$var wire 1 ,! i2c|master|Selector18~1_combout $end
$var wire 1 -! i2c|master|count[2]~1_combout $end
$var wire 1 .! i2c|master|Add0~6 $end
$var wire 1 /! i2c|master|Add0~9_sumout $end
$var wire 1 0! i2c|master|Add0~10 $end
$var wire 1 1! i2c|master|Add0~13_sumout $end
$var wire 1 2! ~GND~combout $end
$var wire 1 3! i2c|master|Add0~14 $end
$var wire 1 4! i2c|master|Add0~17_sumout $end
$var wire 1 5! i2c|master|Add0~18 $end
$var wire 1 6! i2c|master|Add0~21_sumout $end
$var wire 1 7! i2c|master|Add0~22 $end
$var wire 1 8! i2c|master|Add0~25_sumout $end
$var wire 1 9! i2c|master|Add0~26 $end
$var wire 1 :! i2c|master|Add0~29_sumout $end
$var wire 1 ;! i2c|master|Equal0~1_combout $end
$var wire 1 <! i2c|master|Add0~1_sumout $end
$var wire 1 =! i2c|master|Selector18~0_combout $end
$var wire 1 >! i2c|master|Selector18~2_combout $end
$var wire 1 ?! i2c|master|Equal0~0_combout $end
$var wire 1 @! i2c|master|Selector8~0_combout $end
$var wire 1 A! i2c|master|state.STATE_DATA~q $end
$var wire 1 B! i2c|master|state~25_combout $end
$var wire 1 C! i2c|master|state.STATE_WACK3~q $end
$var wire 1 D! i2c|master|state~24_combout $end
$var wire 1 E! i2c|master|state.STATE_PRE_STOP~q $end
$var wire 1 F! i2c|master|state~22_combout $end
$var wire 1 G! i2c|master|state.STATE_STOP~q $end
$var wire 1 H! i2c|master|state~21_combout $end
$var wire 1 I! i2c|master|state.STATE_IDLE~q $end
$var wire 1 J! Selector7~0_combout $end
$var wire 1 K! next_state.STATE_STOP_455~combout $end
$var wire 1 L! current_state.STATE_STOP~q $end
$var wire 1 M! initialized~0_combout $end
$var wire 1 N! initialized~combout $end
$var wire 1 O! Selector13~0_combout $end
$var wire 1 P! next_state.STATE_IDLE_479~combout $end
$var wire 1 Q! current_state.STATE_IDLE~q $end
$var wire 1 R! Selector11~0_combout $end
$var wire 1 S! next_state.STATE_READ_471~combout $end
$var wire 1 T! current_state.STATE_READ~q $end
$var wire 1 U! Add0~1_sumout $end
$var wire 1 V! Selector26~0_combout $end
$var wire 1 W! Selector21~0_combout $end
$var wire 1 X! current_reg_id[0]~0_combout $end
$var wire 1 Y! Selector23~0_combout $end
$var wire 1 Z! Selector22~0_combout $end
$var wire 1 [! Selector17~0_combout $end
$var wire 1 \! Selector19~0_combout $end
$var wire 1 ]! Selector18~0_combout $end
$var wire 1 ^! Selector15~0_combout $end
$var wire 1 _! i2c|master|Mux1~4_combout $end
$var wire 1 `! Selector20~0_combout $end
$var wire 1 a! i2c|master|Mux1~0_combout $end
$var wire 1 b! current_dev_id[0]~0_combout $end
$var wire 1 c! i2c|master|Mux0~4_combout $end
$var wire 1 d! i2c|master|Mux0~0_combout $end
$var wire 1 e! current_data[0]~0_combout $end
$var wire 1 f! i2c|master|Mux2~4_combout $end
$var wire 1 g! i2c|master|Mux2~0_combout $end
$var wire 1 h! i2c|master|Selector19~0_combout $end
$var wire 1 i! i2c|master|Selector19~1_combout $end
$var wire 1 j! i2c|master|i2c_sda_val~q $end
$var wire 1 k! i2c|master|i2c_sda_val~1_combout $end
$var wire 1 l! i2c|master|i2c_sda_val~en_q $end
$var wire 1 m! state~3_combout $end
$var wire 1 n! state~4_combout $end
$var wire 1 o! i2c|master|ready~1_combout $end
$var wire 1 p! i2c|master|always0~0_combout $end
$var wire 1 q! i2c|master|i2c_scl_enable~q $end
$var wire 1 r! i2c|master|i2c_scl~0_combout $end
$var wire 1 s! current_data [7] $end
$var wire 1 t! current_data [6] $end
$var wire 1 u! current_data [5] $end
$var wire 1 v! current_data [4] $end
$var wire 1 w! current_data [3] $end
$var wire 1 x! current_data [2] $end
$var wire 1 y! current_data [1] $end
$var wire 1 z! current_data [0] $end
$var wire 1 {! i2c|master|count [7] $end
$var wire 1 |! i2c|master|count [6] $end
$var wire 1 }! i2c|master|count [5] $end
$var wire 1 ~! i2c|master|count [4] $end
$var wire 1 !" i2c|master|count [3] $end
$var wire 1 "" i2c|master|count [2] $end
$var wire 1 #" i2c|master|count [1] $end
$var wire 1 $" i2c|master|count [0] $end
$var wire 1 %" current_reg_id [7] $end
$var wire 1 &" current_reg_id [6] $end
$var wire 1 '" current_reg_id [5] $end
$var wire 1 (" current_reg_id [4] $end
$var wire 1 )" current_reg_id [3] $end
$var wire 1 *" current_reg_id [2] $end
$var wire 1 +" current_reg_id [1] $end
$var wire 1 ," current_reg_id [0] $end
$var wire 1 -" i2c|master|saved_reg_id [7] $end
$var wire 1 ." i2c|master|saved_reg_id [6] $end
$var wire 1 /" i2c|master|saved_reg_id [5] $end
$var wire 1 0" i2c|master|saved_reg_id [4] $end
$var wire 1 1" i2c|master|saved_reg_id [3] $end
$var wire 1 2" i2c|master|saved_reg_id [2] $end
$var wire 1 3" i2c|master|saved_reg_id [1] $end
$var wire 1 4" i2c|master|saved_reg_id [0] $end
$var wire 1 5" i2c|clk_divider|count [8] $end
$var wire 1 6" i2c|clk_divider|count [7] $end
$var wire 1 7" i2c|clk_divider|count [6] $end
$var wire 1 8" i2c|clk_divider|count [5] $end
$var wire 1 9" i2c|clk_divider|count [4] $end
$var wire 1 :" i2c|clk_divider|count [3] $end
$var wire 1 ;" i2c|clk_divider|count [2] $end
$var wire 1 <" i2c|clk_divider|count [1] $end
$var wire 1 =" i2c|clk_divider|count [0] $end
$var wire 1 >" i2c|master|saved_dev_id [7] $end
$var wire 1 ?" i2c|master|saved_dev_id [6] $end
$var wire 1 @" i2c|master|saved_dev_id [5] $end
$var wire 1 A" i2c|master|saved_dev_id [4] $end
$var wire 1 B" i2c|master|saved_dev_id [3] $end
$var wire 1 C" i2c|master|saved_dev_id [2] $end
$var wire 1 D" i2c|master|saved_dev_id [1] $end
$var wire 1 E" i2c|master|saved_dev_id [0] $end
$var wire 1 F" i2c|master|saved_data [7] $end
$var wire 1 G" i2c|master|saved_data [6] $end
$var wire 1 H" i2c|master|saved_data [5] $end
$var wire 1 I" i2c|master|saved_data [4] $end
$var wire 1 J" i2c|master|saved_data [3] $end
$var wire 1 K" i2c|master|saved_data [2] $end
$var wire 1 L" i2c|master|saved_data [1] $end
$var wire 1 M" i2c|master|saved_data [0] $end
$var wire 1 N" three_count [1] $end
$var wire 1 O" three_count [0] $end
$var wire 1 P" count [7] $end
$var wire 1 Q" count [6] $end
$var wire 1 R" count [5] $end
$var wire 1 S" count [4] $end
$var wire 1 T" count [3] $end
$var wire 1 U" count [2] $end
$var wire 1 V" count [1] $end
$var wire 1 W" count [0] $end
$var wire 1 X" rom|altsyncram_component|auto_generated|q_a [7] $end
$var wire 1 Y" rom|altsyncram_component|auto_generated|q_a [6] $end
$var wire 1 Z" rom|altsyncram_component|auto_generated|q_a [5] $end
$var wire 1 [" rom|altsyncram_component|auto_generated|q_a [4] $end
$var wire 1 \" rom|altsyncram_component|auto_generated|q_a [3] $end
$var wire 1 ]" rom|altsyncram_component|auto_generated|q_a [2] $end
$var wire 1 ^" rom|altsyncram_component|auto_generated|q_a [1] $end
$var wire 1 _" rom|altsyncram_component|auto_generated|q_a [0] $end
$var wire 1 `" current_dev_id [7] $end
$var wire 1 a" current_dev_id [6] $end
$var wire 1 b" current_dev_id [5] $end
$var wire 1 c" current_dev_id [4] $end
$var wire 1 d" current_dev_id [3] $end
$var wire 1 e" current_dev_id [2] $end
$var wire 1 f" current_dev_id [1] $end
$var wire 1 g" current_dev_id [0] $end
$var wire 1 h" rom|altsyncram_component|auto_generated|ram_block1a0_PORTADATAOUT_bus [0] $end
$var wire 1 i" rom|altsyncram_component|auto_generated|ram_block1a1_PORTADATAOUT_bus [0] $end
$var wire 1 j" rom|altsyncram_component|auto_generated|ram_block1a2_PORTADATAOUT_bus [0] $end
$var wire 1 k" rom|altsyncram_component|auto_generated|ram_block1a3_PORTADATAOUT_bus [0] $end
$var wire 1 l" rom|altsyncram_component|auto_generated|ram_block1a4_PORTADATAOUT_bus [0] $end
$var wire 1 m" rom|altsyncram_component|auto_generated|ram_block1a5_PORTADATAOUT_bus [0] $end
$var wire 1 n" rom|altsyncram_component|auto_generated|ram_block1a6_PORTADATAOUT_bus [0] $end
$var wire 1 o" rom|altsyncram_component|auto_generated|ram_block1a7_PORTADATAOUT_bus [0] $end
$upscope $end
$upscope $end
$enddefinitions $end
#0
$dumpvars
0!
z"
1#
0+
0*
0)
0(
0'
0&
0%
0$
1,
0-
0.
1/
04
03
02
01
00
05
16
x7
18
19
1:
0;
0<
1=
1>
0?
1@
1A
0B
1C
0D
0E
0F
0G
0H
0I
0J
0K
0L
0M
0N
0O
0P
0Q
0R
0S
0T
0U
0V
0W
0X
1Y
1Z
0[
0\
0]
0^
0_
0`
0a
0b
0c
0d
0e
0f
0g
0h
0i
0j
0k
0l
0m
0n
1o
0p
1q
0r
1s
0t
0u
0v
0w
0x
0y
1z
0{
0|
0}
0~
0!!
0"!
0#!
0$!
0%!
0&!
0'!
0(!
1)!
0*!
0+!
1,!
0-!
0.!
1/!
00!
11!
02!
03!
14!
05!
16!
07!
18!
09!
1:!
1;!
1<!
0=!
0>!
1?!
0@!
0A!
0B!
0C!
0D!
0E!
0F!
0G!
0H!
0I!
0J!
0K!
0L!
1M!
0N!
1O!
1P!
0Q!
0R!
0S!
0T!
0U!
1V!
0W!
1X!
0Y!
0Z!
0[!
0\!
0]!
0^!
0_!
0`!
0a!
1b!
0c!
0d!
1e!
0f!
0g!
0h!
1i!
0j!
0k!
0l!
0m!
0n!
1o!
0p!
0q!
1r!
0z!
0y!
0x!
0w!
0v!
0u!
0t!
0s!
0$"
0#"
0""
0!"
0~!
0}!
0|!
0{!
0,"
0+"
0*"
0)"
0("
0'"
0&"
0%"
04"
03"
02"
01"
00"
0/"
0."
0-"
0="
0<"
0;"
0:"
09"
08"
07"
06"
05"
0E"
0D"
0C"
0B"
0A"
0@"
0?"
0>"
0M"
0L"
0K"
0J"
0I"
0H"
0G"
0F"
0O"
0N"
1W"
0V"
0U"
0T"
0S"
0R"
0Q"
0P"
0_"
0^"
0]"
0\"
0["
0Z"
0Y"
0X"
0g"
0f"
0e"
0d"
0c"
0b"
0a"
0`"
0h"
0i"
0j"
0k"
0l"
0m"
0n"
0o"
$end
#10000
1!
1<
1Q!
1r
1="
1?
1B
1J
0e!
0b!
0X!
0O!
0M!
0s
1R!
0>
0=
1m!
14
0C
1K
1S!
0P!
1-!
1*!
0o
1I
0o!
0S!
0/
1p
0q
#20000
0!
0<
#29000
0"
#30000
1!
1<
0Q!
0r
0="
0?
1h"
1_"
1+
0B
0J
1O!
0R!
1>
1=
0m!
04
0K
#40000
0!
0<
#50000
1!
1<
1?
1B
0>
#60000
0!
0<
#70000
1!
1<
0?
0B
1>
#80000
0!
0<
#90000
1!
1<
1?
1B
0>
#100000
0!
0<
#110000
1!
1<
0?
0B
1>
#120000
0!
0<
#130000
1!
1<
1?
1B
0>
#140000
0!
0<
#150000
1!
1<
0?
0B
1>
#160000
0!
0<
#170000
1!
1<
1?
1B
0>
#180000
0!
0<
#190000
1!
1<
0?
0B
1>
#200000
0!
0<
#210000
1!
1<
1?
1B
0>
#220000
0!
0<
#230000
1!
1<
0?
0B
1>
#240000
0!
0<
#250000
1!
1<
1?
1B
0>
#260000
0!
0<
#270000
1!
1<
0?
0B
1>
#280000
0!
0<
#290000
1!
1<
1?
1B
0>
#300000
0!
0<
#310000
1!
1<
0?
0B
1>
#320000
0!
0<
#330000
1!
1<
1?
1B
0>
#340000
0!
0<
#350000
1!
1<
0?
0B
1>
#360000
0!
0<
#370000
1!
1<
1?
1B
0>
#380000
0!
0<
#390000
1!
1<
0?
0B
1>
#400000
0!
0<
#410000
1!
1<
1?
1B
0>
#420000
0!
0<
#430000
1!
1<
0?
0B
1>
#440000
0!
0<
#450000
1!
1<
1?
1B
0>
#460000
0!
0<
#470000
1!
1<
0?
0B
1>
#480000
0!
0<
#490000
1!
1<
1?
1B
0>
#500000
0!
0<
#510000
1!
1<
0?
0B
1>
#520000
0!
0<
#530000
1!
1<
1?
1B
0>
#540000
0!
0<
#550000
1!
1<
0?
0B
1>
#560000
0!
0<
#570000
1!
1<
1?
1B
0>
#580000
0!
0<
#590000
1!
1<
0?
0B
1>
#600000
0!
0<
#610000
1!
1<
1?
1B
0>
#620000
0!
0<
#630000
1!
1<
0?
0B
1>
#640000
0!
0<
#650000
1!
1<
1?
1B
0>
#660000
0!
0<
#670000
1!
1<
0?
0B
1>
#680000
0!
0<
#690000
1!
1<
1?
1B
0>
#700000
0!
0<
#710000
1!
1<
0?
0B
1>
#720000
0!
0<
#730000
1!
1<
1?
1B
0>
#740000
0!
0<
#750000
1!
1<
0?
0B
1>
#760000
0!
0<
#770000
1!
1<
1?
1B
0>
#780000
0!
0<
#790000
1!
1<
0?
0B
1>
#800000
0!
0<
#810000
1!
1<
1?
1B
0>
#820000
0!
0<
#830000
1!
1<
0?
0B
1>
#840000
0!
0<
#850000
1!
1<
1?
1B
0>
#860000
0!
0<
#870000
1!
1<
0?
0B
1>
#880000
0!
0<
#890000
1!
1<
1?
1B
0>
#900000
0!
0<
#910000
1!
1<
0?
0B
1>
#920000
0!
0<
#930000
1!
1<
1?
1B
0>
#940000
0!
0<
#950000
1!
1<
0?
0B
1>
#960000
0!
0<
#970000
1!
1<
1?
1B
0>
#980000
0!
0<
#990000
1!
1<
0?
0B
1>
#1000000
0!
0<
#1010000
1!
1<
1?
1B
0>
#1020000
0!
0<
#1030000
1!
1<
0?
0B
1>
#1040000
0!
0<
#1050000
1!
1<
1?
1B
0>
#1060000
0!
0<
#1070000
1!
1<
0?
0B
1>
#1080000
0!
0<
#1090000
1!
1<
1?
1B
0>
#1100000
0!
0<
#1110000
1!
1<
0?
0B
1>
#1120000
0!
0<
#1130000
1!
1<
1?
1B
0>
#1140000
0!
0<
#1150000
1!
1<
0?
0B
1>
#1160000
0!
0<
#1170000
1!
1<
1?
1B
0>
#1180000
0!
0<
#1190000
1!
1<
0?
0B
1>
#1200000
0!
0<
#1210000
1!
1<
1?
1B
0>
#1220000
0!
0<
#1230000
1!
1<
0?
0B
1>
#1240000
0!
0<
#1250000
1!
1<
1?
1B
0>
#1260000
0!
0<
#1270000
1!
1<
0?
0B
1>
#1280000
0!
0<
#1290000
1!
1<
1?
1B
0>
#1300000
0!
0<
#1310000
1!
1<
0?
0B
1>
#1320000
0!
0<
#1330000
1!
1<
1?
1B
0>
#1340000
0!
0<
#1350000
1!
1<
0?
0B
1>
#1360000
0!
0<
#1370000
1!
1<
1?
1B
0>
#1380000
0!
0<
#1390000
1!
1<
0?
0B
1>
#1400000
0!
0<
#1410000
1!
1<
1?
1B
0>
#1420000
0!
0<
#1430000
1!
1<
0?
0B
1>
#1440000
0!
0<
#1450000
1!
1<
1?
1B
0>
#1460000
0!
0<
#1470000
1!
1<
0?
0B
1>
#1480000
0!
0<
#1490000
1!
1<
1?
1B
0>
#1500000
0!
0<
#1510000
1!
1<
0?
0B
1>
#1520000
0!
0<
#1530000
1!
1<
1?
1B
0>
#1540000
0!
0<
#1550000
1!
1<
0?
0B
1>
#1560000
0!
0<
#1570000
1!
1<
1?
1B
0>
#1580000
0!
0<
#1590000
1!
1<
0?
0B
1>
#1600000
0!
0<
#1610000
1!
1<
1?
1B
0>
#1620000
0!
0<
#1630000
1!
1<
0?
0B
1>
#1640000
0!
0<
#1650000
1!
1<
1?
1B
0>
#1660000
0!
0<
#1670000
1!
1<
0?
0B
1>
#1680000
0!
0<
#1690000
1!
1<
1?
1B
0>
#1700000
0!
0<
#1710000
1!
1<
0?
0B
1>
#1720000
0!
0<
#1730000
1!
1<
1?
1B
0>
#1740000
0!
0<
#1750000
1!
1<
0?
0B
1>
#1760000
0!
0<
#1770000
1!
1<
1?
1B
0>
#1780000
0!
0<
#1790000
1!
1<
0?
0B
1>
#1800000
0!
0<
#1810000
1!
1<
1?
1B
0>
#1820000
0!
0<
#1830000
1!
1<
0?
0B
1>
#1840000
0!
0<
#1850000
1!
1<
1?
1B
0>
#1860000
0!
0<
#1870000
1!
1<
0?
0B
1>
#1880000
0!
0<
#1890000
1!
1<
1?
1B
0>
#1900000
0!
0<
#1910000
1!
1<
0?
0B
1>
#1920000
0!
0<
#1930000
1!
1<
1?
1B
0>
#1940000
0!
0<
#1950000
1!
1<
0?
0B
1>
#1960000
0!
0<
#1970000
1!
1<
1?
1B
0>
#1980000
0!
0<
#1990000
1!
1<
0?
0B
1>
#2000000
0!
0<
#2010000
1!
1<
1?
1B
0>
#2020000
0!
0<
#2030000
1!
1<
0?
0B
1>
#2040000
0!
0<
#2050000
1!
1<
1?
1B
0>
#2060000
0!
0<
#2070000
1!
1<
0?
0B
1>
#2080000
0!
0<
#2090000
1!
1<
1?
1B
0>
#2100000
0!
0<
#2110000
1!
1<
0?
0B
1>
#2120000
0!
0<
#2130000
1!
1<
1?
1B
0>
#2140000
0!
0<
#2150000
1!
1<
0?
0B
1>
#2160000
0!
0<
#2170000
1!
1<
1?
1B
0>
#2180000
0!
0<
#2190000
1!
1<
0?
0B
1>
#2200000
0!
0<
#2210000
1!
1<
1?
1B
0>
#2220000
0!
0<
#2230000
1!
1<
0?
0B
1>
#2240000
0!
0<
#2250000
1!
1<
1?
1B
0>
#2260000
0!
0<
#2270000
1!
1<
0?
0B
1>
#2280000
0!
0<
#2290000
1!
1<
1?
1B
0>
#2300000
0!
0<
#2310000
1!
1<
0?
0B
1>
#2320000
0!
0<
#2330000
1!
1<
1?
1B
0>
#2340000
0!
0<
#2350000
1!
1<
0?
0B
1>
#2360000
0!
0<
#2370000
1!
1<
1?
1B
0>
#2380000
0!
0<
#2390000
1!
1<
0?
0B
1>
#2400000
0!
0<
#2410000
1!
1<
1?
1B
0>
#2420000
0!
0<
#2430000
1!
1<
0?
0B
1>
#2440000
0!
0<
#2450000
1!
1<
1?
1B
0>
#2460000
0!
0<
#2470000
1!
1<
0?
0B
1>
#2480000
0!
0<
#2490000
1!
1<
1?
1B
0>
#2500000
0!
0<
#2510000
1!
1<
0?
0B
1>
#2520000
0!
0<
#2530000
1!
1<
1?
1B
0>
#2540000
0!
0<
#2550000
1!
1<
0?
0B
1>
#2560000
0!
0<
#2570000
1!
1<
1?
1B
0>
#2580000
0!
0<
#2590000
1!
1<
0?
0B
1>
#2600000
0!
0<
#2610000
1!
1<
1?
1B
0>
#2620000
0!
0<
#2630000
1!
1<
0?
0B
1>
#2640000
0!
0<
#2650000
1!
1<
1?
1B
0>
#2660000
0!
0<
#2670000
1!
1<
0?
0B
1>
#2680000
0!
0<
#2690000
1!
1<
1?
1B
0>
#2700000
0!
0<
#2710000
1!
1<
0?
0B
1>
#2720000
0!
0<
#2730000
1!
1<
1?
1B
0>
#2740000
0!
0<
#2750000
1!
1<
0?
0B
1>
#2760000
0!
0<
#2770000
1!
1<
1?
1B
0>
#2780000
0!
0<
#2790000
1!
1<
0?
0B
1>
#2800000
0!
0<
#2810000
1!
1<
1?
1B
0>
#2820000
0!
0<
#2830000
1!
1<
0?
0B
1>
#2840000
0!
0<
#2850000
1!
1<
1?
1B
0>
#2860000
0!
0<
#2870000
1!
1<
0?
0B
1>
#2880000
0!
0<
#2890000
1!
1<
1?
1B
0>
#2900000
0!
0<
#2910000
1!
1<
0?
0B
1>
#2920000
0!
0<
#2930000
1!
1<
1?
1B
0>
#2940000
0!
0<
#2950000
1!
1<
0?
0B
1>
#2960000
0!
0<
#2970000
1!
1<
1?
1B
0>
#2980000
0!
0<
#2990000
1!
1<
0?
0B
1>
#3000000
0!
0<
#3010000
1!
1<
1?
1B
0>
#3020000
0!
0<
#3030000
1!
1<
0?
0B
1>
#3040000
0!
0<
#3050000
1!
1<
1?
1B
0>
#3060000
0!
0<
#3070000
1!
1<
0?
0B
1>
#3080000
0!
0<
#3090000
1!
1<
1?
1B
0>
#3100000
0!
0<
#3110000
1!
1<
0?
0B
1>
#3120000
0!
0<
#3130000
1!
1<
1?
1B
0>
#3140000
0!
0<
#3150000
1!
1<
0?
0B
1>
#3160000
0!
0<
#3170000
1!
1<
1?
1B
0>
#3180000
0!
0<
#3190000
1!
1<
0?
0B
1>
#3200000
0!
0<
#3210000
1!
1<
1?
1B
0>
#3220000
0!
0<
#3230000
1!
1<
0?
0B
1>
#3240000
0!
0<
#3250000
1!
1<
1?
1B
0>
#3260000
0!
0<
#3270000
1!
1<
0?
0B
1>
#3280000
0!
0<
#3290000
1!
1<
1?
1B
0>
#3300000
0!
0<
#3310000
1!
1<
0?
0B
1>
#3320000
0!
0<
#3330000
1!
1<
1?
1B
0>
#3340000
0!
0<
#3350000
1!
1<
0?
0B
1>
#3360000
0!
0<
#3370000
1!
1<
1?
1B
0>
#3380000
0!
0<
#3390000
1!
1<
0?
0B
1>
#3400000
0!
0<
#3410000
1!
1<
1?
1B
0>
#3420000
0!
0<
#3430000
1!
1<
0?
0B
1>
#3440000
0!
0<
#3450000
1!
1<
1?
1B
0>
#3460000
0!
0<
#3470000
1!
1<
0?
0B
1>
#3480000
0!
0<
#3490000
1!
1<
1?
1B
0>
#3500000
0!
0<
#3510000
1!
1<
0?
0B
1>
#3520000
0!
0<
#3530000
1!
1<
1?
1B
0>
#3540000
0!
0<
#3550000
1!
1<
0?
0B
1>
#3560000
0!
0<
#3570000
1!
1<
1?
1B
0>
#3580000
0!
0<
#3590000
1!
1<
0?
0B
1>
#3600000
0!
0<
#3610000
1!
1<
1?
1B
0>
#3620000
0!
0<
#3630000
1!
1<
0?
0B
1>
#3640000
0!
0<
#3650000
1!
1<
1?
1B
0>
#3660000
0!
0<
#3670000
1!
1<
0?
0B
1>
#3680000
0!
0<
#3690000
1!
1<
1?
1B
0>
#3700000
0!
0<
#3710000
1!
1<
0?
0B
1>
#3720000
0!
0<
#3730000
1!
1<
1?
1B
0>
#3740000
0!
0<
#3750000
1!
1<
0?
0B
1>
#3760000
0!
0<
#3770000
1!
1<
1?
1B
0>
#3780000
0!
0<
#3790000
1!
1<
0?
0B
1>
#3800000
0!
0<
#3810000
1!
1<
1?
1B
0>
#3820000
0!
0<
#3830000
1!
1<
0?
0B
1>
#3840000
0!
0<
#3850000
1!
1<
1?
1B
0>
#3860000
0!
0<
#3870000
1!
1<
0?
0B
1>
#3880000
0!
0<
#3890000
1!
1<
1?
1B
0>
#3900000
0!
0<
#3910000
1!
1<
0?
0B
1>
#3920000
0!
0<
#3930000
1!
1<
1?
1B
0>
#3940000
0!
0<
#3950000
1!
1<
0?
0B
1>
#3960000
0!
0<
#3970000
1!
1<
1?
1B
0>
#3980000
0!
0<
#3990000
1!
1<
0?
0B
1>
#4000000
0!
0<
#4010000
1!
1<
1?
1B
0>
#4020000
0!
0<
#4030000
1!
1<
0?
0B
1>
#4040000
0!
0<
#4050000
1!
1<
1?
1B
0>
#4060000
0!
0<
#4070000
1!
1<
0?
0B
1>
#4080000
0!
0<
#4090000
1!
1<
1?
1B
0>
#4100000
0!
0<
#4110000
1!
1<
0?
0B
1>
#4120000
0!
0<
#4130000
1!
1<
1?
1B
0>
#4140000
0!
0<
#4150000
1!
1<
0?
0B
1>
#4160000
0!
0<
#4170000
1!
1<
1?
1B
0>
#4180000
0!
0<
#4190000
1!
1<
0?
0B
1>
#4200000
0!
0<
#4210000
1!
1<
1?
1B
0>
#4220000
0!
0<
#4230000
1!
1<
0?
0B
1>
#4240000
0!
0<
#4250000
1!
1<
1?
1B
0>
#4260000
0!
0<
#4270000
1!
1<
0?
0B
1>
#4280000
0!
0<
#4290000
1!
1<
1?
1B
0>
#4300000
0!
0<
#4310000
1!
1<
0?
0B
1>
#4320000
0!
0<
#4330000
1!
1<
1?
1B
0>
#4340000
0!
0<
#4350000
1!
1<
0?
0B
1>
#4360000
0!
0<
#4370000
1!
1<
1?
1B
0>
#4380000
0!
0<
#4390000
1!
1<
0?
0B
1>
#4400000
0!
0<
#4410000
1!
1<
1?
1B
0>
#4420000
0!
0<
#4430000
1!
1<
0?
0B
1>
#4440000
0!
0<
#4450000
1!
1<
1?
1B
0>
#4460000
0!
0<
#4470000
1!
1<
0?
0B
1>
#4480000
0!
0<
#4490000
1!
1<
1?
1B
0>
#4500000
0!
0<
#4510000
1!
1<
0?
0B
1>
#4520000
0!
0<
#4530000
1!
1<
1?
1B
0>
#4540000
0!
0<
#4550000
1!
1<
0?
0B
1>
#4560000
0!
0<
#4570000
1!
1<
1?
1B
0>
#4580000
0!
0<
#4590000
1!
1<
0?
0B
1>
#4600000
0!
0<
#4610000
1!
1<
1?
1B
0>
#4620000
0!
0<
#4630000
1!
1<
0?
0B
1>
#4640000
0!
0<
#4650000
1!
1<
1?
1B
0>
#4660000
0!
0<
#4670000
1!
1<
0?
0B
1>
#4680000
0!
0<
#4690000
1!
1<
1?
1B
0>
#4700000
0!
0<
