project_files/hdmi_init/simulation/qsim/hdmi_init.msim.vcd
$comment
	File created using the following command:
		vcd file hdmi_init.msim.vcd -direction
$end
$date
	Wed May 29 13:26:28 2019
$end
$version
	ModelSim Version 10.5b
$end
$timescale
	1ps
$end

$scope module hdmi_init_vlg_vec_tst $end
$var reg 1 ! clk_ref $end
$var reg 1 " select $end
$var wire 1 # clk_100hz_out $end
$var wire 1 $ i2c_scl $end
$var wire 1 % i2c_sda $end
$var wire 1 & i2c_states [7] $end
$var wire 1 ' i2c_states [6] $end
$var wire 1 ( i2c_states [5] $end
$var wire 1 ) i2c_states [4] $end
$var wire 1 * i2c_states [3] $end
$var wire 1 + i2c_states [2] $end
$var wire 1 , i2c_states [1] $end
$var wire 1 - i2c_states [0] $end
$var wire 1 . ready_out $end
$var wire 1 / state_out [3] $end
$var wire 1 0 state_out [2] $end
$var wire 1 1 state_out [1] $end
$var wire 1 2 state_out [0] $end

$scope module i1 $end
$var wire 1 3 gnd $end
$var wire 1 4 vcc $end
$var wire 1 5 unknown $end
$var tri1 1 6 devclrn $end
$var tri1 1 7 devpor $end
$var tri1 1 8 devoe $end
$var wire 1 9 clk_ref~input_o $end
$var wire 1 : reset_toggle~q $end
$var wire 1 ; select~input_o $end
$var wire 1 < sr_latch_n|comb~0_combout $end
$var wire 1 = sr_latch_n|always0~0_combout $end
$var wire 1 > sr_latch_n|output_Q~combout $end
$var wire 1 ? i2c|clk_divider|i2c_clk~1_combout $end
$var wire 1 @ clk_divider|Add0~25_sumout $end
$var wire 1 A clk_divider|Add0~26 $end
$var wire 1 B clk_divider|Add0~29_sumout $end
$var wire 1 C clk_divider|Add0~30 $end
$var wire 1 D clk_divider|Add0~33_sumout $end
$var wire 1 E clk_divider|Add0~34 $end
$var wire 1 F clk_divider|Add0~1_sumout $end
$var wire 1 G clk_divider|Add0~2 $end
$var wire 1 H clk_divider|Add0~5_sumout $end
$var wire 1 I clk_divider|Add0~6 $end
$var wire 1 J clk_divider|Add0~9_sumout $end
$var wire 1 K clk_divider|Add0~10 $end
$var wire 1 L clk_divider|Add0~13_sumout $end
$var wire 1 M clk_divider|Add0~14 $end
$var wire 1 N clk_divider|Add0~21_sumout $end
$var wire 1 O clk_divider|Add0~22 $end
$var wire 1 P clk_divider|Add0~17_sumout $end
$var wire 1 Q clk_divider|Equal0~0_combout $end
$var wire 1 R i2c|clk_divider|i2c_clk~0_combout $end
$var wire 1 S i2c|clk_divider|i2c_clk~q $end
$var wire 1 T current_state.STATE_BEGIN~0_combout $end
$var wire 1 U current_state.STATE_BEGIN~q $end
$var wire 1 V current_state~13_combout $end
$var wire 1 W current_state.STATE_CHECK~q $end
$var wire 1 X current_state~11_combout $end
$var wire 1 Y current_state.STATE_STOP~q $end
$var wire 1 Z Selector1~0_combout $end
$var wire 1 [ current_state.STATE_IDLE~q $end
$var wire 1 \ current_state~12_combout $end
$var wire 1 ] current_state.STATE_WRITE~q $end
$var wire 1 ^ Selector0~0_combout $end
$var wire 1 _ start~q $end
$var wire 1 ` i2c|master|state~23_combout $end
$var wire 1 a i2c|master|state.STATE_START~q $end
$var wire 1 b i2c|master|WideOr5~0_combout $end
$var wire 1 c i2c|master|Add0~2 $end
$var wire 1 d i2c|master|Add0~5_sumout $end
$var wire 1 e i2c|master|count[1]~0_combout $end
$var wire 1 f i2c|master|Selector18~1_combout $end
$var wire 1 g i2c|master|count[1]~1_combout $end
$var wire 1 h i2c|master|count[1]~2_combout $end
$var wire 1 i i2c|master|Add0~6 $end
$var wire 1 j i2c|master|Add0~9_sumout $end
$var wire 1 k i2c|master|Add0~10 $end
$var wire 1 l i2c|master|Add0~13_sumout $end
$var wire 1 m ~GND~combout $end
$var wire 1 n i2c|master|Add0~14 $end
$var wire 1 o i2c|master|Add0~17_sumout $end
$var wire 1 p i2c|master|Add0~18 $end
$var wire 1 q i2c|master|Add0~21_sumout $end
$var wire 1 r i2c|master|Add0~22 $end
$var wire 1 s i2c|master|Add0~25_sumout $end
$var wire 1 t i2c|master|Add0~26 $end
$var wire 1 u i2c|master|Add0~29_sumout $end
$var wire 1 v i2c|master|Equal0~1_combout $end
$var wire 1 w i2c|master|Add0~1_sumout $end
$var wire 1 x i2c|master|Selector18~0_combout $end
$var wire 1 y i2c|master|Selector18~2_combout $end
$var wire 1 z i2c|master|Equal0~0_combout $end
$var wire 1 { i2c|master|Selector2~0_combout $end
$var wire 1 | i2c|master|state.STATE_ADDR~q $end
$var wire 1 } i2c|master|state~28_combout $end
$var wire 1 ~ i2c|master|state.STATE_WACK~q $end
$var wire 1 !! i2c|master|Selector5~0_combout $end
$var wire 1 "! i2c|master|state.STATE_REG_ADDR~q $end
$var wire 1 #! i2c|master|state~24_combout $end
$var wire 1 $! i2c|master|state.STATE_WACK2~q $end
$var wire 1 %! i2c|master|Selector8~0_combout $end
$var wire 1 &! i2c|master|state.STATE_DATA~q $end
$var wire 1 '! i2c|master|state~25_combout $end
$var wire 1 (! i2c|master|state.STATE_WACK3~q $end
$var wire 1 )! i2c|master|state~27_combout $end
$var wire 1 *! i2c|master|state.STATE_PRE_STOP~q $end
$var wire 1 +! i2c|master|state~26_combout $end
$var wire 1 ,! i2c|master|state.STATE_STOP~q $end
$var wire 1 -! i2c|master|state~22_combout $end
$var wire 1 .! i2c|master|state.STATE_IDLE~q $end
$var wire 1 /! i2c|master|Selector19~0_combout $end
$var wire 1 0! i2c|master|Selector19~1_combout $end
$var wire 1 1! i2c|master|i2c_sda_val~q $end
$var wire 1 2! i2c|master|i2c_sda_val~1_combout $end
$var wire 1 3! i2c|master|i2c_sda_val~en_q $end
$var wire 1 4! state_out~5_combout $end
$var wire 1 5! state_out~6_combout $end
$var wire 1 6! state_out~7_combout $end
$var wire 1 7! state_out~8_combout $end
$var wire 1 8! clk_divider|i2c_clk~0_combout $end
$var wire 1 9! clk_divider|i2c_clk~q $end
$var wire 1 :! i2c|master|state~21_combout $end
$var wire 1 ;! i2c|master|WideOr3~combout $end
$var wire 1 <! i2c|master|WideOr2~combout $end
$var wire 1 =! i2c|master|WideOr1~combout $end
$var wire 1 >! i2c|master|WideOr0~combout $end
$var wire 1 ?! i2c|master|always0~0_combout $end
$var wire 1 @! i2c|master|i2c_scl_enable~q $end
$var wire 1 A! i2c|master|i2c_scl~0_combout $end
$var wire 1 B! i2c|master|count [7] $end
$var wire 1 C! i2c|master|count [6] $end
$var wire 1 D! i2c|master|count [5] $end
$var wire 1 E! i2c|master|count [4] $end
$var wire 1 F! i2c|master|count [3] $end
$var wire 1 G! i2c|master|count [2] $end
$var wire 1 H! i2c|master|count [1] $end
$var wire 1 I! i2c|master|count [0] $end
$var wire 1 J! clk_divider|count [8] $end
$var wire 1 K! clk_divider|count [7] $end
$var wire 1 L! clk_divider|count [6] $end
$var wire 1 M! clk_divider|count [5] $end
$var wire 1 N! clk_divider|count [4] $end
$var wire 1 O! clk_divider|count [3] $end
$var wire 1 P! clk_divider|count [2] $end
$var wire 1 Q! clk_divider|count [1] $end
$var wire 1 R! clk_divider|count [0] $end
$upscope $end
$upscope $end
$enddefinitions $end
#0
$dumpvars
0!
1"
0#
1$
0%
0-
0,
0+
0*
0)
0(
0'
0&
0.
12
01
00
0/
03
14
x5
16
17
18
09
0:
1;
1<
0=
1>
0?
1@
0A
0B
0C
0D
0E
0F
0G
0H
0I
0J
0K
0L
0M
0N
0O
0P
0Q
1R
0S
0T
0U
0V
0W
0X
0Y
1Z
0[
0\
0]
0^
0_
0`
0a
1b
0c
1d
1e
1f
0g
1h
0i
1j
0k
1l
0m
0n
1o
0p
1q
0r
1s
0t
1u
1v
1w
0x
0y
1z
0{
0|
0}
0~
0!!
0"!
0#!
0$!
0%!
0&!
0'!
0(!
0)!
0*!
0+!
0,!
0-!
0.!
0/!
10!
01!
02!
03!
14!
05!
06!
07!
08!
09!
0:!
0;!
0<!
0=!
0>!
0?!
0@!
1A!
0I!
0H!
0G!
0F!
0E!
0D!
0C!
0B!
0R!
0Q!
0P!
0O!
0N!
0M!
0L!
0K!
0J!
$end
#10000
1!
19
#20000
0!
09
1:
1=
0>
1g
0e
0R
1:!
18!
1T
1?
1.
0h
#30000
1!
19
1[
1U
1R!
1A
0@
04!
0Z
15!
1\
11
02
1B
#40000
0!
09
0:
0=
#50000
1!
19
1]
0[
1Q!
0R!
0A
1C
1@
0B
05!
0\
16!
1^
1V
10
01
0C
1B
1D
0D
#60000
0!
09
#70000
1!
19
1_
0]
1W
1R!
1A
0@
17!
1X
06!
0V
1-!
1`
00
1/
1C
0B
1D
#80000
0!
09
#90000
1!
19
1Y
0W
1P!
0Q!
0R!
0A
0C
1E
1@
1B
0D
0X
16!
15!
14!
1Z
12
11
10
0E
0B
1D
1F
0F
#100000
0!
09
#110000
1!
19
1[
0Y
1R!
1A
0@
07!
06!
04!
0Z
1\
02
00
0/
1B
#120000
0!
09
#130000
1!
19
1]
0[
1Q!
0R!
0A
1C
1@
0B
05!
0\
16!
1V
10
01
0C
1E
1B
0D
0E
1D
1F
0F
#140000
0!
09
#150000
1!
19
0]
1W
1R!
1A
0@
17!
1X
06!
0V
00
1/
1C
0B
1E
0D
1F
#160000
0!
09
#170000
1!
19
1Y
0W
1O!
0P!
0Q!
0R!
0A
0C
0E
1G
1@
1B
1D
0F
0X
16!
15!
14!
1Z
12
11
10
0G
0B
0D
1F
1H
0H
#180000
0!
09
#190000
1!
19
1[
0Y
1R!
1A
0@
07!
06!
04!
0Z
1\
02
00
0/
1B
#200000
0!
09
#210000
1!
19
1]
0[
1Q!
0R!
0A
1C
1@
0B
05!
0\
16!
1V
10
01
0C
1B
1D
0D
#220000
0!
09
#230000
1!
19
0]
1W
1R!
1A
0@
17!
1X
06!
0V
00
1/
1C
0B
1D
#240000
0!
09
#250000
1!
19
1Y
0W
1P!
0Q!
0R!
0A
0C
1E
1@
1B
0D
0X
16!
15!
14!
1Z
12
11
10
0E
1G
0B
1D
0F
0G
1F
1H
0H
#260000
0!
09
#270000
1!
19
1[
0Y
1R!
1A
0@
07!
06!
04!
0Z
1\
02
00
0/
1B
#280000
0!
09
#290000
1!
19
1]
0[
1Q!
0R!
0A
1C
1@
0B
05!
0\
16!
1V
10
01
0C
1E
1B
0D
0E
1G
1D
0F
0G
1F
1H
0H
#300000
0!
09
#310000
1!
19
0]
1W
1R!
1A
0@
17!
1X
06!
0V
00
1/
1C
0B
1E
0D
1G
0F
1H
#320000
0!
09
#330000
1!
19
1Y
0W
1N!
0O!
0P!
0Q!
0R!
0A
0C
0E
0G
1I
1@
1B
1D
1F
0H
0X
16!
15!
14!
1Z
12
11
10
0I
0B
0D
0F
1H
1J
0J
#340000
0!
09
#350000
1!
19
1[
0Y
1R!
1A
0@
07!
06!
04!
0Z
1\
02
00
0/
1B
#360000
0!
09
#370000
1!
19
1]
0[
1Q!
0R!
0A
1C
1@
0B
05!
0\
16!
1V
10
01
0C
1B
1D
0D
#380000
0!
09
#390000
1!
19
0]
1W
1R!
1A
0@
17!
1X
06!
0V
00
1/
1C
0B
1D
#400000
0!
09
#410000
1!
19
1Y
0W
1P!
0Q!
0R!
0A
0C
1E
1@
1B
0D
0X
16!
15!
14!
1Z
12
11
10
0E
0B
1D
1F
0F
#420000
0!
09
#430000
1!
19
1[
0Y
1R!
1A
0@
07!
06!
04!
0Z
1\
02
00
0/
1B
#440000
0!
09
#450000
1!
19
1]
0[
1Q!
0R!
0A
1C
1@
0B
05!
0\
16!
1V
10
01
0C
1E
1B
0D
0E
1D
1F
0F
#460000
0!
09
#470000
1!
19
0]
1W
1R!
1A
0@
17!
1X
06!
0V
00
1/
1C
0B
1E
0D
1F
#480000
0!
09
#490000
1!
19
1Y
0W
1O!
0P!
0Q!
0R!
0A
0C
0E
1G
1@
1B
1D
0F
0X
16!
15!
14!
1Z
12
11
10
0G
1I
0B
0D
1F
0H
0I
1H
1J
0J
#500000
0!
09
#510000
1!
19
1[
0Y
1R!
1A
0@
07!
06!
04!
0Z
1\
02
00
0/
1B
#520000
0!
09
#530000
1!
19
1]
0[
1Q!
0R!
0A
1C
1@
0B
05!
0\
16!
1V
10
01
0C
1B
1D
0D
#540000
0!
09
#550000
1!
19
0]
1W
1R!
1A
0@
17!
1X
06!
0V
00
1/
1C
0B
1D
#560000
0!
09
#570000
1!
19
1Y
0W
1P!
0Q!
0R!
0A
0C
1E
1@
1B
0D
0X
16!
15!
14!
1Z
12
11
10
0E
1G
0B
1D
0F
0G
1I
1F
0H
0I
1H
1J
0J
#580000
0!
09
#590000
1!
19
1[
0Y
1R!
1A
0@
07!
06!
04!
0Z
1\
02
00
0/
1B
#600000
0!
09
#610000
1!
19
1]
0[
1Q!
0R!
0A
1C
1@
0B
05!
0\
16!
1V
10
01
0C
1E
1B
0D
0E
1G
1D
0F
0G
1I
1F
0H
0I
1H
1J
0J
#620000
0!
09
#630000
1!
19
0]
1W
1R!
1A
0@
17!
1X
06!
0V
00
1/
1C
0B
1E
0D
1G
0F
1I
0H
1J
#640000
0!
09
#650000
1!
19
1Y
0W
1M!
0N!
0O!
0P!
0Q!
0R!
0A
0C
0E
0G
0I
1K
1@
1B
1D
1F
1H
0J
0X
16!
15!
14!
1Z
12
11
10
0K
0B
0D
0F
0H
1J
1L
0L
#660000
0!
09
#670000
1!
19
1[
0Y
1R!
1A
0@
07!
06!
04!
0Z
1\
02
00
0/
1B
#680000
0!
09
#690000
1!
19
1]
0[
1Q!
0R!
0A
1C
1@
0B
05!
0\
16!
1V
10
01
0C
1B
1D
0D
#700000
0!
09
#710000
1!
19
0]
1W
1R!
1A
0@
17!
1X
06!
0V
00
1/
1C
0B
1D
#720000
0!
09
#730000
1!
19
1Y
0W
1P!
0Q!
0R!
0A
0C
1E
1@
1B
0D
0X
16!
15!
14!
1Z
12
11
10
0E
0B
1D
1F
0F
#740000
0!
09
#750000
1!
19
1[
0Y
1R!
1A
0@
07!
06!
04!
0Z
1\
02
00
0/
1B
#760000
0!
09
#770000
1!
19
1]
0[
1Q!
0R!
0A
1C
1@
0B
05!
0\
16!
1V
10
01
0C
1E
1B
0D
0E
1D
1F
0F
#780000
0!
09
#790000
1!
19
0]
1W
1R!
1A
0@
17!
1X
06!
0V
00
1/
1C
0B
1E
0D
1F
#800000
0!
09
#810000
1!
19
1Y
0W
1O!
0P!
0Q!
0R!
0A
0C
0E
1G
1@
1B
1D
0F
0X
16!
15!
14!
1Z
12
11
10
0G
0B
0D
1F
1H
0H
#820000
0!
09
#830000
1!
19
1[
0Y
1R!
1A
0@
07!
06!
04!
0Z
1\
02
00
0/
1B
#840000
0!
09
#850000
1!
19
1]
0[
1Q!
0R!
0A
1C
1@
0B
05!
0\
16!
1V
10
01
0C
1B
1D
0D
#860000
0!
09
#870000
1!
19
0]
1W
1R!
1A
0@
17!
1X
06!
0V
00
1/
1C
0B
1D
#880000
0!
09
#890000
1!
19
1Y
0W
1P!
0Q!
0R!
0A
0C
1E
1@
1B
0D
0X
16!
15!
14!
1Z
12
11
10
0E
1G
0B
1D
0F
0G
1F
1H
0H
#900000
0!
09
#910000
1!
19
1[
0Y
1R!
1A
0@
07!
06!
04!
0Z
1\
02
00
0/
1B
#920000
0!
09
#930000
1!
19
1]
0[
1Q!
0R!
0A
1C
1@
0B
05!
0\
16!
1V
10
01
0C
1E
1B
0D
0E
1G
1D
0F
0G
1F
1H
0H
#940000
0!
09
#950000
1!
19
0]
1W
1R!
1A
0@
17!
1X
06!
0V
00
1/
1C
0B
1E
0D
1G
0F
1H
#960000
0!
09
#970000
1!
19
1Y
0W
1N!
0O!
0P!
0Q!
0R!
0A
0C
0E
0G
1I
1@
1B
1D
1F
0H
0X
16!
15!
14!
1Z
12
11
10
0I
1K
0B
0D
0F
1H
0J
0K
1J
1L
0L
#980000
0!
09
#990000
1!
19
1[
0Y
1R!
1A
0@
07!
06!
04!
0Z
1\
02
00
0/
1B
#1000000
0!
09
#1010000
1!
19
1]
0[
1Q!
0R!
0A
1C
1@
0B
05!
0\
16!
1V
10
01
0C
1B
1D
0D
#1020000
0!
09
#1030000
1!
19
0]
1W
1R!
1A
0@
17!
1X
06!
0V
00
1/
1C
0B
1D
#1040000
0!
09
#1050000
1!
19
1Y
0W
1P!
0Q!
0R!
0A
0C
1E
1@
1B
0D
0X
16!
15!
14!
1Z
12
11
10
0E
0B
1D
1F
0F
#1060000
0!
09
#1070000
1!
19
1[
0Y
1R!
1A
0@
07!
06!
04!
0Z
1\
02
00
0/
1B
#1080000
0!
09
#1090000
1!
19
1]
0[
1Q!
0R!
0A
1C
1@
0B
05!
0\
16!
1V
10
01
0C
1E
1B
0D
0E
1D
1F
0F
#1100000
0!
09
#1110000
1!
19
0]
1W
1R!
1A
0@
17!
1X
06!
0V
00
1/
1C
0B
1E
0D
1F
#1120000
0!
09
#1130000
1!
19
1Y
0W
1O!
0P!
0Q!
0R!
0A
0C
0E
1G
1@
1B
1D
0F
0X
16!
15!
14!
1Z
12
11
10
0G
1I
0B
0D
1F
0H
0I
1K
1H
0J
0K
1J
1L
0L
#1140000
0!
09
#1150000
1!
19
1[
0Y
1R!
1A
0@
07!
06!
04!
0Z
1\
02
00
0/
1B
#1160000
0!
09
#1170000
1!
19
1]
0[
1Q!
0R!
0A
1C
1@
0B
05!
0\
16!
1V
10
01
0C
1B
1D
0D
#1180000
0!
09
#1190000
1!
19
0]
1W
1R!
1A
0@
17!
1X
06!
0V
00
1/
1C
0B
1D
#1200000
0!
09
#1210000
1!
19
1Y
0W
1P!
0Q!
0R!
0A
0C
1E
1@
1B
0D
0X
16!
15!
14!
1Z
12
11
10
0E
1G
0B
1D
0F
0G
1I
1F
0H
0I
1K
1H
0J
0K
1J
1L
0L
#1220000
0!
09
#1230000
1!
19
1[
0Y
1R!
1A
0@
07!
06!
04!
0Z
1\
02
00
0/
1B
#1240000
0!
09
#1250000
1!
19
1]
0[
1Q!
0R!
0A
1C
1@
0B
05!
0\
16!
1V
10
01
0C
1E
1B
0D
0E
1G
1D
0F
0G
1I
1F
0H
0I
1K
1H
0J
0K
1J
1L
0L
#1260000
0!
09
#1270000
1!
19
0]
1W
1R!
1A
0@
17!
1X
06!
0V
00
1/
1C
0B
1E
0D
1G
0F
1I
0H
1K
0J
1L
#1280000
0!
09
#1290000
1!
19
1Y
0W
1L!
0M!
0N!
0O!
0P!
0Q!
0R!
0A
0C
0E
0G
0I
0K
1M
1@
1B
1D
1F
1H
1J
0L
0X
16!
15!
14!
1Z
12
11
10
0M
0B
0D
0F
0H
0J
1L
1N
0N
#1300000
0!
09
#1310000
1!
19
1[
0Y
1R!
1A
0@
07!
06!
04!
0Z
1\
02
00
0/
1B
#1320000
0!
09
#1330000
1!
19
1]
0[
1Q!
0R!
0A
1C
1@
0B
05!
0\
16!
1V
10
01
0C
1B
1D
0D
#1340000
0!
09
#1350000
1!
19
0]
1W
1R!
1A
0@
17!
1X
06!
0V
00
1/
1C
0B
1D
#1360000
0!
09
#1370000
1!
19
1Y
0W
1P!
0Q!
0R!
0A
0C
1E
1@
1B
0D
0X
16!
15!
14!
1Z
12
11
10
0E
0B
1D
1F
0F
#1380000
0!
09
#1390000
1!
19
1[
0Y
1R!
1A
0@
07!
06!
04!
0Z
1\
02
00
0/
1B
#1400000
0!
09
#1410000
1!
19
1]
0[
1Q!
0R!
0A
1C
1@
0B
05!
0\
16!
1V
10
01
0C
1E
1B
0D
0E
1D
1F
0F
#1420000
0!
09
#1430000
1!
19
0]
1W
1R!
1A
0@
17!
1X
06!
0V
00
1/
1C
0B
1E
0D
1F
#1440000
0!
09
#1450000
1!
19
1Y
0W
1O!
0P!
0Q!
0R!
0A
0C
0E
1G
1@
1B
1D
0F
0X
16!
15!
14!
1Z
12
11
10
0G
0B
0D
1F
1H
0H
#1460000
0!
09
#1470000
1!
19
1[
0Y
1R!
1A
0@
07!
06!
04!
0Z
1\
02
00
0/
1B
#1480000
0!
09
#1490000
1!
19
1]
0[
1Q!
0R!
0A
1C
1@
0B
05!
0\
16!
1V
10
01
0C
1B
1D
0D
#1500000
0!
09
#1510000
1!
19
0]
1W
1R!
1A
0@
17!
1X
06!
0V
00
1/
1C
0B
1D
#1520000
0!
09
#1530000
1!
19
1Y
0W
1P!
0Q!
0R!
0A
0C
1E
1@
1B
0D
0X
16!
15!
14!
1Z
12
11
10
0E
1G
0B
1D
0F
0G
1F
1H
0H
#1540000
0!
09
#1550000
1!
19
1[
0Y
1R!
1A
0@
07!
06!
04!
0Z
1\
02
00
0/
1B
#1560000
0!
09
#1570000
1!
19
1]
0[
1Q!
0R!
0A
1C
1@
0B
05!
0\
16!
1V
10
01
0C
1E
1B
0D
0E
1G
1D
0F
0G
1F
1H
0H
#1580000
0!
09
#1590000
1!
19
0]
1W
1R!
1A
0@
17!
1X
06!
0V
00
1/
1C
0B
1E
0D
1G
0F
1H
#1600000
0!
09
#1610000
1!
19
1Y
0W
1N!
0O!
0P!
0Q!
0R!
0A
0C
0E
0G
1I
1@
1B
1D
1F
0H
0X
16!
15!
14!
1Z
12
11
10
0I
0B
0D
0F
1H
1J
0J
#1620000
0!
09
#1630000
1!
19
1[
0Y
1R!
1A
0@
07!
06!
04!
0Z
1\
02
00
0/
1B
#1640000
0!
09
#1650000
1!
19
1]
0[
1Q!
0R!
0A
1C
1@
0B
05!
0\
16!
1V
10
01
0C
1B
1D
0D
#1660000
0!
09
#1670000
1!
19
0]
1W
1R!
1A
0@
17!
1X
06!
0V
00
1/
1C
0B
1D
#1680000
0!
09
#1690000
1!
19
1Y
0W
1P!
0Q!
0R!
0A
0C
1E
1@
1B
0D
0X
16!
15!
14!
1Z
12
11
10
0E
0B
1D
1F
0F
#1700000
0!
09
#1710000
1!
19
1[
0Y
1R!
1A
0@
07!
06!
04!
0Z
1\
02
00
0/
1B
#1720000
0!
09
#1730000
1!
19
1]
0[
1Q!
0R!
0A
1C
1@
0B
05!
0\
16!
1V
10
01
0C
1E
1B
0D
0E
1D
1F
0F
#1740000
0!
09
#1750000
1!
19
0]
1W
1R!
1A
0@
17!
1X
06!
0V
00
1/
1C
0B
1E
0D
1F
#1760000
0!
09
#1770000
1!
19
1Y
0W
1O!
0P!
0Q!
0R!
0A
0C
0E
1G
1@
1B
1D
0F
0X
16!
15!
14!
1Z
12
11
10
0G
1I
0B
0D
1F
0H
0I
1H
1J
0J
#1780000
0!
09
#1790000
1!
19
1[
0Y
1R!
1A
0@
07!
06!
04!
0Z
1\
02
00
0/
1B
#1800000
0!
09
#1810000
1!
19
1]
0[
1Q!
0R!
0A
1C
1@
0B
05!
0\
16!
1V
10
01
0C
1B
1D
0D
#1820000
0!
09
#1830000
1!
19
0]
1W
1R!
1A
0@
17!
1X
06!
0V
00
1/
1C
0B
1D
#1840000
0!
09
#1850000
1!
19
1Y
0W
1P!
0Q!
0R!
0A
0C
1E
1@
1B
0D
0X
16!
15!
14!
1Z
12
11
10
0E
1G
0B
1D
0F
0G
1I
1F
0H
0I
1H
1J
0J
#1860000
0!
09
#1870000
1!
19
1[
0Y
1R!
1A
0@
07!
06!
04!
0Z
1\
02
00
0/
1B
#1880000
0!
09
#1890000
1!
19
1]
0[
1Q!
0R!
0A
1C
1@
0B
05!
0\
16!
1V
10
01
0C
1E
1B
0D
0E
1G
1D
0F
0G
1I
1F
0H
0I
1H
1J
0J
#1900000
0!
09
#1910000
1!
19
0]
1W
1R!
1A
0@
17!
1X
06!
0V
00
1/
1C
0B
1E
0D
1G
0F
1I
0H
1J
#1920000
0"
0!
0;
09
0<
1>
0g
1e
1R
0:!
08!
0-!
0`
0X
0T
0?
0.
1h
#1930000
1!
19
0W
0U
0L!
0N!
0O!
0P!
0Q!
0R!
0A
0C
0E
0G
0I
1@
1B
1D
1F
1H
0L
14!
0^
1Z
07!
0/
12
0B
0D
0F
0H
0J
#1940000
0!
09
1:
1<
