project_files/hdmi_init/simulation/qsim/hdmi_init.msim.vcd
$comment
	File created using the following command:
		vcd file hdmi_init.msim.vcd -direction
$end
$date
	Wed May 29 12:46:27 2019
$end
$version
	ModelSim Version 10.5b
$end
$timescale
	1ps
$end

$scope module hdmi_init_vlg_vec_tst $end
$var reg 1 ! clk_ref $end
$var reg 1 " treg_i2c_sda $end
$var reg 1 # select $end
$var wire 1 $ i2c_scl $end
$var wire 1 % i2c_sda $end
$var wire 1 & state_out [3] $end
$var wire 1 ' state_out [2] $end
$var wire 1 ( state_out [1] $end
$var wire 1 ) state_out [0] $end

$scope module i1 $end
$var wire 1 * gnd $end
$var wire 1 + vcc $end
$var wire 1 , unknown $end
$var tri1 1 - devclrn $end
$var tri1 1 . devpor $end
$var tri1 1 / devoe $end
$var wire 1 0 i2c_sda~input_o $end
$var wire 1 1 i2c_sda~output_o $end
$var wire 1 2 state_out[0]~output_o $end
$var wire 1 3 state_out[1]~output_o $end
$var wire 1 4 state_out[2]~output_o $end
$var wire 1 5 state_out[3]~output_o $end
$var wire 1 6 i2c_scl~output_o $end
$var wire 1 7 clk_ref~input_o $end
$var wire 1 8 reset_toggle~q $end
$var wire 1 9 select~input_o $end
$var wire 1 : sr_latch_n|comb~0_combout $end
$var wire 1 ; sr_latch_n|always0~0_combout $end
$var wire 1 < sr_latch_n|output_Q~combout $end
$var wire 1 = current_state.STATE_BEGIN~0_combout $end
$var wire 1 > current_state.STATE_BEGIN~q $end
$var wire 1 ? current_state~10_combout $end
$var wire 1 @ current_state.STATE_IDLE~q $end
$var wire 1 A current_state~12_combout $end
$var wire 1 B current_state.STATE_WRITE~q $end
$var wire 1 C current_state~11_combout $end
$var wire 1 D current_state.STATE_CHECK~q $end
$var wire 1 E current_state~13_combout $end
$var wire 1 F current_state.STATE_STOP~q $end
$var wire 1 G Selector0~0_combout $end
$var wire 1 H i2c_sda_wire~q $end
$var wire 1 I state_out~3_combout $end
$var wire 1 J state_out~4_combout $end
$var wire 1 K Selector1~0_combout $end
$var wire 1 L i2c_scl_wire~q $end
$upscope $end
$upscope $end
$enddefinitions $end
#0
$dumpvars
0!
z"
1#
0$
0%
0)
0(
0'
0&
0*
1+
x,
1-
1.
1/
00
01
02
03
04
05
06
07
08
19
1:
0;
1<
0=
0>
0?
0@
0A
0B
0C
0D
0E
0F
1G
0H
0I
0J
1K
0L
$end
#500000
1!
17
#1000000
0!
07
18
1;
0<
1?
1=
#1500000
1!
17
1@
1>
1L
1H
11
16
1$
1%
0G
0?
1I
1A
12
10
1)
#2000000
0!
07
08
0;
#2500000
1!
17
1B
0@
0H
01
0%
0K
0I
0A
1J
1C
13
02
00
0)
1(
#3000000
0!
07
#3500000
1!
17
1D
0B
0L
06
0$
0C
1I
1G
1E
12
1)
#4000000
0!
07
#4500000
1!
17
0D
1H
1F
14
11
1'
1%
0J
0I
0G
1K
02
03
10
0(
0)
#5000000
0!
07
#5500000
1!
17
1L
0H
01
16
1$
0%
1G
0K
00
#6000000
0!
07
#6500000
1!
17
0L
1H
11
06
0$
1%
0G
1K
10
#7000000
0!
07
#7500000
1!
17
1L
0H
01
16
1$
0%
1G
0K
00
#8000000
0!
07
#8500000
1!
17
0L
1H
11
06
0$
1%
0G
1K
10
#9000000
0!
07
#9500000
1!
17
1L
0H
01
16
1$
0%
1G
0K
00
#10000000
0!
07
#10500000
1!
17
0L
1H
11
06
0$
1%
0G
1K
10
#11000000
0!
07
#11500000
1!
17
1L
0H
01
16
1$
0%
1G
0K
00
#12000000
0!
07
#12500000
1!
17
0L
1H
11
06
0$
1%
0G
1K
10
#13000000
0!
07
#13500000
1!
17
1L
0H
01
16
1$
0%
1G
0K
00
#14000000
0!
07
#14500000
1!
17
0L
1H
11
06
0$
1%
0G
1K
10
#15000000
0!
07
#15500000
1!
17
1L
0H
01
16
1$
0%
1G
0K
00
#16000000
0!
07
#16500000
1!
17
0L
1H
11
06
0$
1%
0G
1K
10
#17000000
0!
07
#17500000
1!
17
1L
0H
01
16
1$
0%
1G
0K
00
#18000000
0!
07
#18240000
0#
09
0:
1<
0E
0=
#18500000
1!
17
0>
0F
04
0'
1K
#19000000
0!
07
18
1:
#19500000
1!
17
#20000000
0!
07
#20160000
1#
19
1;
0<
1?
1=
#20500000
1!
17
1@
1>
1H
11
1%
0G
0?
1I
1A
12
10
1)
#21000000
0!
07
08
0;
#21500000
1!
17
1B
0@
0H
01
0%
0K
0I
0A
1J
1C
13
02
00
0)
1(
#22000000
0!
07
#22500000
1!
17
1D
0B
0L
06
0$
0C
1I
1G
1E
12
1)
#23000000
0!
07
#23500000
1!
17
0D
1H
1F
14
11
1'
1%
0J
0I
0G
1K
02
03
10
0(
0)
#24000000
0!
07
#24500000
1!
17
1L
0H
01
16
1$
0%
1G
0K
00
#25000000
0!
07
#25500000
1!
17
0L
1H
11
06
0$
1%
0G
1K
10
#26000000
0!
07
#26500000
1!
17
1L
0H
01
16
1$
0%
1G
0K
00
#27000000
0!
07
#27500000
1!
17
0L
1H
11
06
0$
1%
0G
1K
10
#28000000
0!
07
#28500000
1!
17
1L
0H
01
16
1$
0%
1G
0K
00
#29000000
0!
07
#29500000
1!
17
0L
1H
11
06
0$
1%
0G
1K
10
#30000000
0!
07
#30500000
1!
17
1L
0H
01
16
1$
0%
1G
0K
00
#31000000
0!
07
#31500000
1!
17
0L
1H
11
06
0$
1%
0G
1K
10
#32000000
0!
07
#32500000
1!
17
1L
0H
01
16
1$
0%
1G
0K
00
#33000000
0!
07
#33500000
1!
17
0L
1H
11
06
0$
1%
0G
1K
10
#34000000
0!
07
#34500000
1!
17
1L
0H
01
16
1$
0%
1G
0K
00
#35000000
0!
07
#35500000
1!
17
0L
1H
11
06
0$
1%
0G
1K
10
#36000000
0!
07
#36500000
1!
17
1L
0H
01
16
1$
0%
1G
0K
00
#37000000
0!
07
#37500000
1!
17
0L
1H
11
06
0$
1%
0G
1K
10
#38000000
0!
07
#38500000
1!
17
1L
0H
01
16
1$
0%
1G
0K
00
#39000000
0!
07
#39500000
1!
17
0L
1H
11
06
0$
1%
0G
1K
10
#40000000
0!
07
#40500000
1!
17
1L
0H
01
16
1$
0%
1G
0K
00
#41000000
0!
07
#41500000
1!
17
0L
1H
11
06
0$
1%
0G
1K
10
#42000000
0!
07
#42500000
1!
17
1L
0H
01
16
1$
0%
1G
0K
00
#43000000
0!
07
#43500000
1!
17
0L
1H
11
06
0$
1%
0G
1K
10
#44000000
0!
07
#44500000
1!
17
1L
0H
01
16
1$
0%
1G
0K
00
#45000000
0!
07
#45500000
1!
17
0L
1H
11
06
0$
1%
0G
1K
10
#46000000
0!
07
#46500000
1!
17
1L
0H
01
16
1$
0%
1G
0K
00
#47000000
0!
07
#47500000
1!
17
0L
1H
11
06
0$
1%
0G
1K
10
#48000000
0!
07
#48500000
1!
17
1L
0H
01
16
1$
0%
1G
0K
00
#49000000
0!
07
#49500000
1!
17
0L
1H
11
06
0$
1%
0G
1K
10
#50000000
0!
07
#50500000
1!
17
1L
0H
01
16
1$
0%
1G
0K
00
#51000000
0!
07
#51500000
1!
17
0L
1H
11
06
0$
1%
0G
1K
10
#52000000
0!
07
#52500000
1!
17
1L
0H
01
16
1$
0%
1G
0K
00
#53000000
0!
07
#53500000
1!
17
0L
1H
11
06
0$
1%
0G
1K
10
#54000000
0!
07
#54500000
1!
17
1L
0H
01
16
1$
0%
1G
0K
00
#55000000
0!
07
#55500000
1!
17
0L
1H
11
06
0$
1%
0G
1K
10
#56000000
0!
07
#56500000
1!
17
1L
0H
01
16
1$
0%
1G
0K
00
#57000000
0!
07
#57500000
1!
17
0L
1H
11
06
0$
1%
0G
1K
10
#58000000
0!
07
#58500000
1!
17
1L
0H
01
16
1$
0%
1G
0K
00
#59000000
0!
07
#59500000
1!
17
0L
1H
11
06
0$
1%
0G
1K
10
#60000000
0!
07
#60500000
1!
17
1L
0H
01
16
1$
0%
1G
0K
00
#61000000
0!
07
#61500000
1!
17
0L
1H
11
06
0$
1%
0G
1K
10
#62000000
0!
07
#62500000
1!
17
1L
0H
01
16
1$
0%
1G
0K
00
#63000000
0!
07
#63500000
1!
17
0L
1H
11
06
0$
1%
0G
1K
10
#64000000
0!
07
#64500000
1!
17
1L
0H
01
16
1$
0%
1G
0K
00
#65000000
0!
07
#65500000
1!
17
0L
1H
11
06
0$
1%
0G
1K
10
#66000000
0!
07
#66500000
1!
17
1L
0H
01
16
1$
0%
1G
0K
00
#67000000
0!
07
#67500000
1!
17
0L
1H
11
06
0$
1%
0G
1K
10
#68000000
0!
07
#68500000
1!
17
1L
0H
01
16
1$
0%
1G
0K
00
#69000000
0!
07
#69500000
1!
17
0L
1H
11
06
0$
1%
0G
1K
10
#70000000
0!
07
#70500000
1!
17
1L
0H
01
16
1$
0%
1G
0K
00
#71000000
0!
07
#71500000
1!
17
0L
1H
11
06
0$
1%
0G
1K
10
#72000000
0!
07
#72500000
1!
17
1L
0H
01
16
1$
0%
1G
0K
00
#73000000
0!
07
#73500000
1!
17
0L
1H
11
06
0$
1%
0G
1K
10
#74000000
0!
07
#74500000
1!
17
1L
0H
01
16
1$
0%
1G
0K
00
#75000000
0!
07
#75500000
1!
17
0L
1H
11
06
0$
1%
0G
1K
10
#76000000
0!
07
#76500000
1!
17
1L
0H
01
16
1$
0%
1G
0K
00
#77000000
0!
07
#77500000
1!
17
0L
1H
11
06
0$
1%
0G
1K
10
#78000000
0!
07
#78500000
1!
17
1L
0H
01
16
1$
0%
1G
0K
00
#79000000
0!
07
#79500000
1!
17
0L
1H
11
06
0$
1%
0G
1K
10
#80000000
0!
07
#80500000
1!
17
1L
0H
01
16
1$
0%
1G
0K
00
#81000000
0!
07
#81500000
1!
17
0L
1H
11
06
0$
1%
0G
1K
10
#82000000
0!
07
#82500000
1!
17
1L
0H
01
16
1$
0%
1G
0K
00
#83000000
0!
07
#83500000
1!
17
0L
1H
11
06
0$
1%
0G
1K
10
#84000000
0!
07
#84500000
1!
17
1L
0H
01
16
1$
0%
1G
0K
00
#85000000
0!
07
#85500000
1!
17
0L
1H
11
06
0$
1%
0G
1K
10
#86000000
0!
07
#86500000
1!
17
1L
0H
01
16
1$
0%
1G
0K
00
#87000000
0!
07
#87500000
1!
17
0L
1H
11
06
0$
1%
0G
1K
10
#88000000
0!
07
#88500000
1!
17
1L
0H
01
16
1$
0%
1G
0K
00
#89000000
0!
07
#89500000
1!
17
0L
1H
11
06
0$
1%
0G
1K
10
#90000000
0!
07
#90500000
1!
17
1L
0H
01
16
1$
0%
1G
0K
00
#91000000
0!
07
#91500000
1!
17
0L
1H
11
06
0$
1%
0G
1K
10
#92000000
0!
07
#92500000
1!
17
1L
0H
01
16
1$
0%
1G
0K
00
#93000000
0!
07
#93500000
1!
17
0L
1H
11
06
0$
1%
0G
1K
10
#94000000
0!
07
#94500000
1!
17
1L
0H
01
16
1$
0%
1G
0K
00
#95000000
0!
07
#95500000
1!
17
0L
1H
11
06
0$
1%
0G
1K
10
#96000000
0!
07
#96500000
1!
17
1L
0H
01
16
1$
0%
1G
0K
00
#97000000
0!
07
#97500000
1!
17
0L
1H
11
06
0$
1%
0G
1K
10
#98000000
0!
07
#98500000
1!
17
1L
0H
01
16
1$
0%
1G
0K
00
#99000000
0!
07
#99500000
1!
17
0L
1H
11
06
0$
1%
0G
1K
10
